{
    "results": [
        {
            "vote_count": 1383,
            "id": 351286,
            "video": false,
            "vote_average": 6.7,
            "title": "Jurassic World: Reino Ameaçado",
            "popularity": 278.298402,
            "poster_path": "/5PWRDsozYR1VeExrFLqZ8Qpw07m.jpg",
            "original_language": "en",
            "original_title": "Jurassic World: Fallen Kingdom",
            "genre_ids": [
                28,
                12,
                878
            ],
            "backdrop_path": "/gBmrsugfWpiXRh13Vo3j0WW55qD.jpg",
            "adult": false,
            "overview": "Quatro anos após o fechamento do Jurassic World, um vulcão prestes a entrar em erupção põe em risco a vida na ilha Nublar. No local não há mais qualquer presença humana, com os dinossauros vivendo livremente. Diante da situação, é preciso tomar uma decisão: deve-se retornar à ilha para salvar os animais ou abandoná-los para uma nova extinção? Decidida a resgatá-los, Claire (Bryce Dallas Howard) convoca Owen (Chris Pratt) a retornar à ilha com ela.",
            "release_date": "2018-06-06"
        },
        {
            "vote_count": 556,
            "id": 260513,
            "video": false,
            "vote_average": 7.7,
            "title": "Os Incríveis 2",
            "popularity": 164.140227,
            "poster_path": "/y3EEb7o6NxK0pl0WsOswCos663y.jpg",
            "original_language": "en",
            "original_title": "Incredibles 2",
            "genre_ids": [
                28,
                12,
                16,
                10751
            ],
            "backdrop_path": "/mabuNsGJgRuCTuGqjFkWe1xdu19.jpg",
            "adult": false,
            "overview": "A família de super-heróis favorita de todo mundo está de volta em Os Incríveis 2 — mas dessa vez, Helena está sendo o destaque, deixando Bob em casa com Violeta e Flecha para se aventurar no dia a dia heroico de vida “normal”. É uma transição difícil para todo mundo, sendo os super poderes emergentes de Zezé o fator mais complicado. Quando um novo vilão traça uma trama brilhante e perigosa, a família e Gelado devem encontrar uma maneira de trabalhar juntos novamente — o que é mais fácil dizer do que fazer, mesmo quando são incríveis.",
            "release_date": "2018-06-14"
        },
        {
            "vote_count": 72,
            "id": 400535,
            "video": false,
            "vote_average": 6.5,
            "title": "Sicário: Dia do Soldado",
            "popularity": 84.549332,
            "poster_path": "/OdD7A0LgLXPjqzmfcEl9sTYVPo.jpg",
            "original_language": "en",
            "original_title": "Sicario: Day of the Soldado",
            "genre_ids": [
                28,
                80,
                18,
                53
            ],
            "backdrop_path": "/urMfgRUk0Kmf5p0KEJopAlqcyXm.jpg",
            "adult": false,
            "overview": "Depois de Scicario - Terra de Ninguém, acompanhe o misterioso Alejandro Gillick (Benicio Del Toro) e o oficial da CIA, Matt Graver (Josh Brolin), trabalhando juntos em uma audaciosa ação secreta. Na missão que envolve a filha de um chefão das drogas, Isabelle (Isabella Moner), Alejandro acaba se vendo em uma encruzilhada moral e suas escolhas podem acabar desencadeando uma sangrenta guerra de cartéis.",
            "release_date": "2018-06-27"
        },
        {
            "vote_count": 30,
            "id": 363088,
            "video": false,
            "vote_average": 6.1,
            "title": "Homem Formiga e a Vespa",
            "popularity": 74.970044,
            "poster_path": "/azH25XpelbpzSEg8JoQVJQsFNF7.jpg",
            "original_language": "en",
            "original_title": "Ant-Man and the Wasp",
            "genre_ids": [
                28,
                12,
                14,
                35,
                878
            ],
            "backdrop_path": "/ksjyNgV9RTCprnzFjkEtvP72vhJ.jpg",
            "adult": false,
            "overview": "A vida de Scott Lang (Paul Rudd) ficou bem agitada desde que se transformou no Homem-Fomiga. Ele precisa encontrar uma forma de equilibrar a vida de super-herói com a de pai. É quando ele recebe uma importante e arriscada missão, tendo como aliada Hope/Vespa (Evangeline Lilly).",
            "release_date": "2018-07-04"
        },
        {
            "vote_count": 6,
            "id": 442249,
            "video": false,
            "vote_average": 4.8,
            "title": "A Primeira Noite de Crime",
            "popularity": 60.188784,
            "poster_path": "/bSf5yIYOfKo15IpZ6vI2Ho8oBEp.jpg",
            "original_language": "en",
            "original_title": "The First Purge",
            "genre_ids": [
                28,
                27,
                878,
                53
            ],
            "backdrop_path": "/dnaitaoCh8MftfYEVnprcuYExZp.jpg",
            "adult": false,
            "overview": "O longa será uma prequel da franquia The Purge/Uma Noite de Crime que se concentrará nos eventos que levaram ao primeiro dos filmes.",
            "release_date": "2018-07-04"
        },
        {
            "vote_count": 432,
            "id": 402900,
            "video": false,
            "vote_average": 6.7,
            "title": "Oito Mulheres e um Segredo",
            "popularity": 54.386257,
            "poster_path": "/mymTjvZeg9hkSSofg78nH0GOtLS.jpg",
            "original_language": "en",
            "original_title": "Ocean's 8",
            "genre_ids": [
                80,
                35,
                28,
                53
            ],
            "backdrop_path": "/zBIfBeStaDdDdhBrSx8InhgFUVa.jpg",
            "adult": false,
            "overview": "Cinco anos, oito meses, 12 dias... em contagem regressiva. Este foi o tempo que Debbie Ocean levou para preparar o maior assalto da sua vida. Ela sabe que precisará de uma equipe com as melhores do métier, a começar pela sua parceira de crimes Lou Miller. Juntas, elas recrutam um grupo de especialistas: a joalheira Amita, a vigarista Constance, a especialista em receptação Tammy, a hacker Nine Ball e a estilista Rose. O alvo é US$ 150 milhões de dólares em diamantes... diamantes que estarão no pescoço da atriz mundialmente famosa Daphne Kluger, na grande atração no evento do ano, o Met Gala. O plano é sólido como uma rocha, mas tudo precisará ser perfeito para a equipe conseguir entrar e escapar com os diamantes. Tudo absolutamente à vista.",
            "release_date": "2018-06-07"
        },
        {
            "vote_count": 72,
            "id": 440471,
            "video": false,
            "vote_average": 5,
            "title": "Rota de Fuga 2: Hades",
            "popularity": 51.076982,
            "poster_path": "/cNK4ugSqah0vvBBgQy1moKZ6xi.jpg",
            "original_language": "en",
            "original_title": "Escape Plan 2: Hades",
            "genre_ids": [
                80,
                28,
                53
            ],
            "backdrop_path": "/xIAaN3AQqaJiN5RJ0WsmBady8Hq.jpg",
            "adult": false,
            "overview": "Anos depois de ter conseguido escapar de uma prisão à prova de fuga, Ray Breslin (Sylvester Stallone) organizou uma nova força de segurança de elite. Mas quando um dos seus elementos desaparece, Breslin vê-se obrigado a regressar ao inferno de onde já fugiu uma vez para salvar o amigo da brutal arena de combate conhecida como Hades.",
            "release_date": "2018-06-05"
        },
        {
            "vote_count": 3,
            "id": 353081,
            "video": false,
            "vote_average": 0,
            "title": "Missão: Impossível - Efeito Fallout",
            "popularity": 44.642751,
            "poster_path": "/sxONXzoex1PPV1Z15aO3gcjW8dI.jpg",
            "original_language": "en",
            "original_title": "Mission: Impossible - Fallout",
            "genre_ids": [
                12,
                28,
                53
            ],
            "backdrop_path": "/5qxePyMYDisLe8rJiBYX8HKEyv2.jpg",
            "adult": false,
            "overview": "Quando uma importante missão não sai como o planejado, Ethan Hunt (Tom Cruise) e o time do IMF unem forças em ação numa corrida contra o tempo para acertar as contas com os erros do passados.",
            "release_date": "2018-07-26"
        },
        {
            "vote_count": 269,
            "id": 493922,
            "video": false,
            "vote_average": 7.1,
            "title": "Hereditário",
            "popularity": 42.323018,
            "poster_path": "/wxnaxTnJhXeqn12xeuhE8ZgjJQB.jpg",
            "original_language": "en",
            "original_title": "Hereditary",
            "genre_ids": [
                27,
                18,
                9648,
                53
            ],
            "backdrop_path": "/yVWiOMpzf7gullGvug83r7gMdha.jpg",
            "adult": false,
            "overview": "Após a morte da reclusa avó, a família Graham começa a desvendar algumas coisas. Mesmo após a partida da matriarca, ela permanece como se fosse um sombra sobre a família, especialmente sobre a solitária neta adolescente, Charlie, por quem ela sempre manteve uma fascinação não usual. Com um crescente terror tomando conta da casa, a família explora lugares mais escuros para escapar do infeliz destino que herdaram.",
            "release_date": "2018-06-04"
        },
        {
            "vote_count": 120,
            "id": 460668,
            "video": false,
            "vote_average": 6.4,
            "title": "Sexy por Acidente",
            "popularity": 37.036725,
            "poster_path": "/zAVxVGlxWFOV9ae4hPh9eau2PDk.jpg",
            "original_language": "en",
            "original_title": "I Feel Pretty",
            "genre_ids": [
                35
            ],
            "backdrop_path": "/eMO51xOIJYtlMZLpDUlrnq0mz8k.jpg",
            "adult": false,
            "overview": "Renee (Amy Schumer), uma mulher comum, luta diariamente com sua insegurança. Depois de cair de bicicleta e bater a cabeça, ela de repente acorda acreditando ser a mulher maiz capaz e bonita do mundo. E com isso Renee começa a viver a vida mais confiante e sem medo das falhas.",
            "release_date": "2018-04-19"
        },
        {
            "vote_count": 3,
            "id": 493006,
            "video": false,
            "vote_average": 4.3,
            "title": "名探偵コナン ゼロの執行人",
            "popularity": 35.490653,
            "poster_path": "/mMWV5MXn2pkDnnI4vWpy3dRWdNC.jpg",
            "original_language": "ja",
            "original_title": "名探偵コナン ゼロの執行人",
            "genre_ids": [
                16,
                80,
                9648,
                28,
                18
            ],
            "backdrop_path": "/kEqeponciiz6TyuKWtnKSzXzbGa.jpg",
            "adult": false,
            "overview": "",
            "release_date": "2018-04-13"
        },
        {
            "vote_count": 63,
            "id": 385332,
            "video": false,
            "vote_average": 5.7,
            "title": "A Vingança Perfeita",
            "popularity": 34.88514,
            "poster_path": "/rfshkd4jotXFIbmJirYpgxzpdCR.jpg",
            "original_language": "en",
            "original_title": "Terminal",
            "genre_ids": [
                53,
                18,
                80
            ],
            "backdrop_path": "/bwvxvrHH3nTbcwpEcJhA72kkI94.jpg",
            "adult": false,
            "overview": "Dois assassinos de aluguel (Max Irons e Dexter Fletcher) embarcam uma missão suicída, encomendada por uma pessoa misteriosa. Até que surge uma mulher perigosa, Annie (Margot Robbie), que está mais envolvida nessa história do que aparenta.",
            "release_date": "2018-05-11"
        },
        {
            "vote_count": 61,
            "id": 455980,
            "video": false,
            "vote_average": 7,
            "title": "Tag",
            "popularity": 33.113919,
            "poster_path": "/eXXpuW2xaq5Aen9N5prFlARVIvr.jpg",
            "original_language": "en",
            "original_title": "Tag",
            "genre_ids": [
                35
            ],
            "backdrop_path": "/yRXzrwLfB5tDTIA3lSU9S3N9RUK.jpg",
            "adult": false,
            "overview": "",
            "release_date": "2018-06-14"
        },
        {
            "vote_count": 61,
            "id": 399248,
            "video": false,
            "vote_average": 6.5,
            "title": "Beirute",
            "popularity": 31.183615,
            "poster_path": "/s2qIeFsI9TskZr1LkSwljQDh5nl.jpg",
            "original_language": "en",
            "original_title": "Beirut",
            "genre_ids": [
                28,
                53,
                18
            ],
            "backdrop_path": "/2nLOJ8gtattGzYzwlYM8PrcgknH.jpg",
            "adult": false,
            "overview": "Um diplomata americano foge do Líbano em 1972 depois de um trágico acidente em sua casa. Dez anos depois, ele é chamado de volta para a cidade de Beirute para negociar a vida de um amigo que deixou para trás.",
            "release_date": "2018-04-11"
        },
        {
            "vote_count": 556,
            "id": 399174,
            "video": false,
            "vote_average": 7.9,
            "title": "Ilha de Cachorros",
            "popularity": 30.625605,
            "poster_path": "/fsS7sWTsmnQmzXCH1tG4DZdRXOQ.jpg",
            "original_language": "en",
            "original_title": "Isle of Dogs",
            "genre_ids": [
                12,
                35,
                16
            ],
            "backdrop_path": "/5YtXsLG9ncjjFyGZjoeV31CGf01.jpg",
            "adult": false,
            "overview": "Filme de animação stop-motion estadunidense de 2018 escrito e dirigido por Wes Anderson. Estrelado pelas vozes de Bryan Cranston, Edward Norton, Bill Murray, Jeff Goldblum e Bob Balaban, foi exibido pela primeira vez no Festival de Berlim em 15 de fevereiro, ocasião em que Anderson venceu o Urso de Prata de Melhor Diretor.",
            "release_date": "2018-03-23"
        },
        {
            "vote_count": 142,
            "id": 425336,
            "video": false,
            "vote_average": 6.2,
            "title": "Escobar - A Traição",
            "popularity": 23.421392,
            "poster_path": "/u4zDvt1RLzcubG2TGianeJHwwPA.jpg",
            "original_language": "es",
            "original_title": "Loving Pablo",
            "genre_ids": [
                80,
                18
            ],
            "backdrop_path": "/pcIXV6Od8KeDsLWKu7Wzthaur4V.jpg",
            "adult": false,
            "overview": "Baseado nas memórias de Virginia Vallejo no livro \"Amando a Pablo, Odiando a Escobar\", jornalista que teve um caso com o bandido na década de 1980, o filme retrata o surgimento do cartel de drogas na Colômbia comandado por Pablo Escobar.",
            "release_date": "2017-10-12"
        },
        {
            "vote_count": 30,
            "id": 429300,
            "video": false,
            "vote_average": 6.4,
            "title": "Vidas à Deriva",
            "popularity": 21.725583,
            "poster_path": "/gBSR1FLu4g7D7ycdkV25i563RXk.jpg",
            "original_language": "en",
            "original_title": "Adrift",
            "genre_ids": [
                53,
                10749,
                12
            ],
            "backdrop_path": "/64jAqTJvrzEwncD3ARZdqYLcqbc.jpg",
            "adult": false,
            "overview": "Tami Oldham (Shailene Woodley) e Richard Sharp (Sam Claflin) velejam pelo Taiti quando são atingidos por uma terrível tempestade. Passada a tormenta, ela se vê sozinha na embarcação em ruínas e tenta encontrar uma maneira de salvar a própria vida e a do parceiro.",
            "release_date": "2018-05-31"
        },
        {
            "vote_count": 82,
            "id": 399796,
            "video": false,
            "vote_average": 6,
            "title": "Alma da Festa",
            "popularity": 20.916034,
            "poster_path": "/U9VikkobAGLh5jcw81T1RLnqMj.jpg",
            "original_language": "en",
            "original_title": "Life of the Party",
            "genre_ids": [
                35
            ],
            "backdrop_path": "/k1Aks1n2zF5Nl1rQH0ZuguDkgna.jpg",
            "adult": false,
            "overview": "Em choque após ser inesperadamente abandonada pelo marido de anos, Deanna (Melissa McCarthy) decide mudar completamente de vida largando a dedicação exclusiva aos afazeres domésticos para entrar na universidade. Matriculada na mesma turma da filha, que odeia a ideia, ela muda o nome para Dee Rock, diverte-se como nunca, conhece o estranho mundo das fraternidades, estuda um pouco e finalmente sente-se livre.",
            "release_date": "2018-05-11"
        },
        {
            "vote_count": 0,
            "id": 447200,
            "video": false,
            "vote_average": 0,
            "title": "Arranha-Céu: Coragem Sem Limite",
            "popularity": 20.863873,
            "poster_path": "/fVrYrknXAQD5D48tGmww0XCcwd1.jpg",
            "original_language": "en",
            "original_title": "Skyscraper",
            "genre_ids": [
                28,
                53,
                18
            ],
            "backdrop_path": "/oMKFQmoVgB69fyXfSMu0lGlHJP2.jpg",
            "adult": false,
            "overview": "Responsável pela segurança de arranha-céus, o veterano de guerra americano e ex-líder da operação de resgate do FBI, Will Ford (Dwayne Johnson), é acusado de ter colocado o edifício mais alto e mais seguro da China em chamas. Cabe ao agente achar os culpados pelo incêndio, salvar sua família que está presa dentro do prédio e limpar seu nome.",
            "release_date": "2018-07-11"
        },
        {
            "vote_count": 143,
            "id": 467660,
            "video": false,
            "vote_average": 6.1,
            "title": "Unsane",
            "popularity": 20.259208,
            "poster_path": "/1M1U5K4Vf1Cbtrjl9EkGNWpqahf.jpg",
            "original_language": "en",
            "original_title": "Unsane",
            "genre_ids": [
                27,
                53
            ],
            "backdrop_path": "/xj6qPnD9DIVvlhTsteXumeF2OsV.jpg",
            "adult": false,
            "overview": "Uma jovem é internada contra sua vontade em um hospital psiquiátrico, onde ela será obrigada a lidar com seu maior medo. Mas será que ele é real ou simplesmente uma ilusão criada pela sua mente?",
            "release_date": "2018-03-22"
        }
    ],
    "page": 1,
    "total_results": 222,
    "dates": {
        "maximum": "2018-07-26",
        "minimum": "2018-07-03"
    },
    "total_pages": 12
}
